Package R pour Communiquer avec une Api Grist • gristapi
…
# Create a table with data
add_records(api,
  table_id = "Mtcars",
  record_dicts = mtcars |> mutate(names = row.names(mtcars)) |> relocate(names),
  create_or_replace = TRUE
  )
#>  [1]  1  2  3  4  5  6  7  8  9 10 11 12 13 14 15 16 17 18 19 20 21 22 23 24 25
#> [26] 26 27 28 29 30 31 32

# Call all data from a table
fetch_table(api,"Mtcars")
#> # A tibble: 32 × 13
#>       id names   mpg   cyl  disp    hp  drat    wt  qsec    vs    am  gear  carb
#>    <int> <chr> <dbl> <int> <dbl> <int> <dbl> <dbl> <dbl> <int> <int> <int> <int>
#>  1     1 Mazd…  21       6  160    110  3.9   2.62  16.5     0     1     4     4
#>  2     2 Mazd…  21       6  160    110  3.9   2.88  17.0     0     1     4     4
#>  3     3 Dats…  22.8     4  108     93  3.85  2.32  18.6     1     1     4     1
#>  4     4 Horn…  21.4     6  258    110  3.08  3.22  19.4     1     0     3     1
#>  5     5 Horn…  18.7     8  360    175  3.15  3.44  17.0     0     0     3     2
#>  6     6 Vali…  18.1     6  225    105  2.76  3.46  20.2     1     0     3     1
#>  7     7 Dust…  14.3     8  360    245  3.21  3.57  15.8     0     0     3     4
#>  8     8 Merc…  24.4     4  147.    62  3.69  3.19  20       1     0     4     2
#>  9     9 Merc…  22.8     4  141.    95  3.92  3.15  22.9     1     0     4     2
#> 10    10 Merc…  19.2     6  168.   123  3.92  3.44  18.3     1     0     4     4
#> # ℹ 22 more rows
…
