Get data from a table — fetch_table • gristapi
…
    Examples

# view all data from a given table
table_name <- paste0("Mtcars_", get_os())
api <- grist_api$new(
  server = 'https://grist.numerique.gouv.fr',
  api_key = Sys.getenv("GRIST_KEY"),
  doc_id = Sys.getenv("GRIST_DOC_TEST")
)
fetch_table(api, table_name)
#> # A tibble: 32 × 13
#>       id names   mpg   cyl  disp    hp  drat    wt  qsec    vs    am  gear  carb
#>    <int> <chr> <dbl> <int> <dbl> <int> <dbl> <dbl> <dbl> <int> <int> <int> <int>
#>  1     1 Mazd…  21       6  160    110  3.9   2.62  16.5     0     1     4     4
#>  2     2 Mazd…  21       6  160    110  3.9   2.88  17.0     0     1     4     4
#>  3     3 Dats…  22.8     4  108     93  3.85  2.32  18.6     1     1     4     1
#>  4     4 Horn…  21.4     6  258    110  3.08  3.22  19.4     1     0     3     1
#>  5     5 Horn…  18.7     8  360    175  3.15  3.44  17.0     0     0     3     2
#>  6     7 Dust…  14.3     8  360    245  3.21  3.57  15.8     0     0     3     4
#>  7     8 Merc…  24.4     4  147.    62  3.69  3.19  20       1     0     4     2
#>  8     9 Merc…  22.8     4  141.    95  3.92  3.15  22.9     1     0     4     2
#>  9    10 Merc…  19.2     6  168.   123  3.92  3.44  18.3     1     0     4     4
#> 10    11 Merc…  17.8     6  168.   123  3.92  3.44  18.9     1     0     4     4
#> # ℹ 22 more rows
…
