grist.numerique.gouv.fr (FR) • gristapi
…
Exemples :

req_sql <- "select * from Iris where Sepal_Length > 5 and Sepal_Width < 4"

api$json_to_table(
  api$call(
    url = paste0("/sql?q=",URLencode(req_sql)), 
    type_resp = "string"
  ), 
  "records"
)
#> # A tibble: 117 × 8
#>       id manualSort my_id Sepal_Length Sepal_Width Petal_Length Petal_Width
#>    <int>      <int> <int>        <dbl>       <dbl>        <dbl>       <dbl>
#>  1     1          1     1          5.1         3.5          1.5         0.2
#>  2     4          4     4          5.4         3.9          1.7         0.4
#>  3     9          9     9          5.4         3.7          1.5         0.2
#>  4    15         15    15          5.4         3.9          1.3         0.4
#>  5    16         16    16          5.1         3.5          1.4         0.3
#>  6    17         17    17          5.7         3.8          1.7         0.3
#>  7    18         18    18          5.1         3.8          1.5         0.3
#>  8    19         19    19          5.4         3.4          1.7         0.2
#>  9    20         20    20          5.1         3.7          1.5         0.4
#> 10    22         22    22          5.1         3.3          1.7         0.5
#> # ℹ 107 more rows
#> # ℹ 1 more variable: Species <chr>
…
